
[
  // *********************************************************************************
  { "type"           : "Service",
    "name"           : "Ms Basic Connect V3",
    "mbimex-service" : "Basic Connect",
    "mbimex-version" : "3.0" },

 // *********************************************************************************
  { "name"         : "Subscriber Ready Status",
    "type"         : "Command",
    "since"        : "1.28",
    // query same as in v1
    "response"     : [ { "name"             : "ReadyState",
                         "format"           : "guint32",
                         "public-format"    : "MbimSubscriberReadyState" },
                       { "name"             : "Flags",
                         "format"           : "guint32",
                         "public-format"    : "MbimSubscriberReadyStatusFlag" },
                       { "name"             : "SubscriberId",
                         "format"           : "string" },
                       { "name"             : "SimIccId",
                         "format"           : "string" },
                       { "name"             : "ReadyInfo",
                         "format"           : "guint32",
                         "public-format"    : "MbimReadyInfoFlag" },
                       { "name"             : "TelephoneNumbersCount",
                         "format"           : "guint32" },
                       { "name"             : "TelephoneNumbers",
                         "format"           : "string-array",
                         "array-size-field" : "TelephoneNumbersCount" } ],
    "notification" : [ { "name"             : "ReadyState",
                         "format"           : "guint32",
                         "public-format"    : "MbimSubscriberReadyState" },
                       { "name"             : "Flags",
                         "format"           : "guint32",
                         "public-format"    : "MbimSubscriberReadyStatusFlag" },
                       { "name"             : "SubscriberId",
                         "format"           : "string" },
                       { "name"             : "SimIccId",
                         "format"           : "string" },
                       { "name"             : "ReadyInfo",
                         "format"           : "guint32",
                         "public-format"    : "MbimReadyInfoFlag" },
                       { "name"             : "TelephoneNumbersCount",
                         "format"           : "guint32" },
                       { "name"             : "TelephoneNumbers",
                         "format"           : "string-array",
                         "array-size-field" : "TelephoneNumbersCount" } ] },

  // *********************************************************************************
  { "name"     : "MbimTai",
    "type"     : "Struct",
    "since"    : "1.28",
    "contents" : [ { "name"   : "PlmnMcc",
                     "format" : "guint16" },
                   { "name"   : "PlmnMnc",
                     "format" : "guint16" },
                   { "name"   : "Tac",
                     "format" : "guint32" } ] },

  { "name"         : "Packet Service",
    "type"         : "Command",
    "since"    	   : "1.28",
    // set same as in v1
    // query same as in v1
    "response"     : [ { "name"   : "NwError",
                         "format" : "guint32" },
                       { "name"          : "PacketServiceState",
                         "format"        : "guint32",
                         "public-format" : "MbimPacketServiceState" },
                       { "name"          : "HighestAvailableDataClass",
                         "format"        : "guint32",
                         "public-format" : "MbimDataClassV2" },
                       { "name"   : "UplinkSpeed",
                         "format" : "guint64" },
                       { "name"   : "DownlinkSpeed",
                         "format" : "guint64" },
                       { "name"          : "FrequencyRange",
                         "format"        : "guint32",
                         "public-format" : "MbimFrequencyRange" },
                       { "name"          : "DataSubclass",
                         "format"        : "guint32",
                         "public-format" : "MbimDataSubclass" },
                       { "name"        : "Tai",
                         "format"      : "struct",
                         "struct-type" : "MbimTai" } ],
    "notification" : [ { "name"   : "NwError",
                         "format" : "guint32" },
                       { "name"          : "PacketServiceState",
                         "format"        : "guint32",
                         "public-format" : "MbimPacketServiceState" },
                       { "name"          : "HighestAvailableDataClass",
                         "format"        : "guint32",
                         "public-format" : "MbimDataClassV2" },
                       { "name"   : "UplinkSpeed",
                         "format" : "guint64" },
                       { "name"   : "DownlinkSpeed",
                         "format" : "guint64" },
                       { "name"          : "FrequencyRange",
                         "format"        : "guint32",
                         "public-format" : "MbimFrequencyRange" },
                       { "name"          : "DataSubclass",
                         "format"        : "guint32",
                         "public-format" : "MbimDataSubclass" },
                       { "name"        : "Tai",
                         "format"      : "struct",
                         "struct-type" : "MbimTai" } ] },

  // *********************************************************************************
  { "name"         : "Connect",
    "service"      : "Basic Connect",
    "type"         : "Command",
    "since"        : "1.28",
    "set"          : [ { "name"          : "SessionId",
                         "format"        : "guint32" },
                       { "name"          : "ActivationCommand",
                         "format"        : "guint32",
                         "public-format" : "MbimActivationCommand" },
                       { "name"          : "Compression",
                         "format"        : "guint32",
                         "public-format" : "MbimCompression" },
                       { "name"          : "AuthProtocol",
                         "format"        : "guint32",
                         "public-format" : "MbimAuthProtocol" },
                       { "name"          : "IpType",
                         "format"        : "guint32",
                         "public-format" : "MbimContextIpType" },
                       { "name"          : "ContextType",
                         "format"        : "uuid" },
                       { "name"          : "MediaPreference",
                         "format"        : "guint32",
                         "public-format" : "MbimAccessMediaType" },
                       { "name"          : "AccessString",
                         "format"        : "tlv-string" },
                       { "name"          : "UserName",
                         "format"        : "tlv-string" },
                       { "name"          : "Password",
                         "format"        : "tlv-string" },
                       { "name"          : "UnnamedIes",
                         "format"        : "tlv-list" } ],
    "query"        : [ { "name"   : "SessionId",
                         "format" : "guint32" } ],
    "response"     : [ { "name"          : "SessionId",
                         "format"        : "guint32" },
                       { "name"          : "ActivationState",
                         "format"        : "guint32",
                         "public-format" : "MbimActivationState" },
                       { "name"          : "VoiceCallState",
                         "format"        : "guint32",
                         "public-format" : "MbimVoiceCallState" },
                       { "name"          : "IpType",
                         "format"        : "guint32",
                         "public-format" : "MbimContextIpType" },
                       { "name"          : "ContextType",
                         "format"        : "uuid" },
                       { "name"          : "NwError",
                         "format"        : "guint32" },
                       { "name"          : "MediaPreference",
                         "format"        : "guint32",
                         "public-format" : "MbimAccessMediaType" },
                       { "name"          : "AccessString",
                         "format"        : "tlv-string" },
                       { "name"          : "UnnamedIes",
                         "format"        : "tlv-list" } ],
    "notification" : [ { "name"          : "SessionId",
                         "format"        : "guint32" },
                       { "name"          : "ActivationState",
                         "format"        : "guint32",
                         "public-format" : "MbimActivationState" },
                       { "name"          : "VoiceCallState",
                         "format"        : "guint32",
                         "public-format" : "MbimVoiceCallState" },
                       { "name"          : "IpType",
                         "format"        : "guint32",
                         "public-format" : "MbimContextIpType" },
                       { "name"          : "ContextType",
                         "format"        : "uuid" },
                       { "name"          : "NwError",
                         "format"        : "guint32" },
                       { "name"          : "MediaPreference",
                         "format"        : "guint32",
                         "public-format" : "MbimAccessMediaType" },
                       { "name"          : "AccessString",
                         "format"        : "tlv-string" },
                       { "name"          : "UnnamedIes",
                         "format"        : "tlv-list" } ] }
]
